Usenet Analysis
…
# use unnest() and map() to apply read_folder to each subfolder
raw_text <- data_frame(folder = dir(training_folder, full.names = TRUE)) %>%
  unnest(map(folder, read_folder)) %>%
  transmute(newsgroup = basename(folder), id, text)

raw_text

## # A tibble: 511,655 x 3
##    newsgroup   id    text                                                  
##    <chr>       <chr> <chr>                                                 
##  1 alt.atheism 49960 From: mathew <mathew@mantis.co.uk>                    
##  2 alt.atheism 49960 Subject: Alt.Atheism FAQ: Atheist Resources           
##  3 alt.atheism 49960 Summary: Books, addresses, music -- anything related 
##  4 alt.atheism 49960 Keywords: FAQ, atheism, books, music, fiction, addres
##  5 alt.atheism 49960 Expires: Thu, 29 Apr 1993 11:57:19 GMT                
##  6 alt.atheism 49960 Distribution: world                                   
##  7 alt.atheism 49960 Organization: Mantis Consultants, Cambridge. UK.      
##  8 alt.atheism 49960 Supersedes: <19930301143317@mantis.co.uk>             
##  9 alt.atheism 49960 Lines: 290                                            
## 10 alt.atheism 49960 ""                                                    
## # ... with 511,645 more rows
…
Unlike the other texts, this dataset has some strucutre and extra text that we dont want to analyze and thus needs to be removed. For example, each message has a header, contaiing fields such as from: or in_reply_to: that describe the message. Some also have automated email signatures, which occur after a line like --. We can generally do this pre-processing suing the dplyr package, using a combination of cumsum() and str_detect() from stringr.

library(stringr)

# must occur after the first occurence of an empty line,
# and before the first occurence of a line starting with --
cleaned_text <- raw_text %>%
  group_by(newsgroup, id) %>%
  filter(cumsum(text == "") > 0,
         cumsum(str_detect(text, "^--")) == 0) %>%
  ungroup()

cleaned_text

## # A tibble: 364,390 x 3
##    newsgroup   id    text                                                  
##    <chr>       <chr> <chr>                                                 
##  1 alt.atheism 49960 ""                                                    
##  2 alt.atheism 49960 Archive-name: atheism/resources                       
##  3 alt.atheism 49960 Alt-atheism-archive-name: resources                   
##  4 alt.atheism 49960 Last-modified: 11 December 1992                       
##  5 alt.atheism 49960 Version: 1.0                                          
##  6 alt.atheism 49960 ""                                                    
##  7 alt.atheism 49960 "                              Atheist Resources"     
##  8 alt.atheism 49960 ""                                                    
##  9 alt.atheism 49960 "                      Addresses of Atheist Organizat
## 10 alt.atheism 49960 ""                                                    
## # ... with 364,380 more rows
…
